STA323 - Tidyverse
…
untidy!

Tidy vs untidy

# A tibble: 317 × 7
   artist         track                   date.entered   wk1   wk2   wk3   wk4
   <chr>          <chr>                   <date>       <dbl> <dbl> <dbl> <dbl>
 1 2 Pac          Baby Don't Cry (Keep... 2000-02-26      87    82    72    77
 2 2Ge+her        The Hardest Part Of ... 2000-09-02      91    87    92    NA
 3 3 Doors Down   Kryptonite              2000-04-08      81    70    68    67
 4 3 Doors Down   Loser                   2000-10-21      76    76    72    69
 5 504 Boyz       Wobble Wobble           2000-04-15      57    34    25    17
 6 98^0           Give Me Just One Nig... 2000-08-19      51    39    34    26
 7 A*Teens        Dancing Queen           2000-07-08      97    97    96    95
 8 Aaliyah        I Don't Wanna           2000-01-29      84    62    51    41
 9 Aaliyah        Try Again               2000-03-18      59    53    38    28
10 Adams, Yolanda Open My Heart           2000-08-26      76    76    74    69
# … with 307 more rows
…
How many distinct routes?

flights %>%
  select(origin, dest) %>%
  distinct() %>%
  nrow()

[1] 224

select() two columns

select(flights, arr_delay, dest)

# A tibble: 336,776 × 2
   arr_delay dest 
       <dbl> <chr>
 1        11 IAH  
 2        20 IAH  
 3        33 MIA  
 4       -18 BQN  
 5       -25 ATL  
 6        12 ORD  
 7        19 FLL  
 8       -14 IAD  
 9        -8 MCO  
10         8 ORD  
# … with 336,766 more rows

select() columns that contain information about departures or arrivals

flights %>% 
  select(contains("dep_"), contains("arr_"))

# A tibble: 336,776 × 6
   dep_time sched_dep_time dep_delay arr_time sched_arr_time arr_delay
      <int>          <int>     <dbl>    <int>          <int>     <dbl>
 1      517            515         2      830            819        11
 2      533            529         4      850            830        20
 3      542            540         2      923            850        33
 4      544            545        -1     1004           1022       -18
 5      554            600        -6      812            837       -25
 6      554            558        -4      740            728        12
 7      555            600        -5      913            854        19
 8      557            600        -3      709            723       -14
 9      557            600        -3      838            846        -8
10      558            600        -2      753            745         8
# … with 336,766 more rows
…
exclude with select()

select() all but the first 10 columns

flights %>%
  select(-1:10)

Warning in x:y: numerical expression has 18 elements: only the first used

# A tibble: 336,776 × 9
   month   day dep_time sched_dep_time dep_delay arr_t…¹ sched…² arr_d…³ carrier
   <int> <int>    <int>          <int>     <dbl>   <int>   <int>   <dbl> <chr>  
 1     1     1      517            515         2     830     819      11 UA     
 2     1     1      533            529         4     850     830      20 UA     
 3     1     1      542            540         2     923     850      33 AA     
 4     1     1      544            545        -1    1004    1022     -18 B6     
 5     1     1      554            600        -6     812     837     -25 DL     
 6     1     1      554            558        -4     740     728      12 UA     
 7     1     1      555            600        -5     913     854      19 B6     
 8     1     1      557            600        -3     709     723     -14 EV     
 9     1     1      557            600        -3     838     846      -8 B6     
10     1     1      558            600        -2     753     745       8 AA     
# … with 336,766 more rows, and abbreviated variable names ¹​arr_time,
#   ²​sched_arr_time, ³​arr_delay
…
 [1] "dep_time"       "sched_dep_time" "dep_delay"      "arr_time"      
 [5] "sched_arr_time" "arr_delay"      "carrier"        "flight"        
 [9] "tailnum"        "origin"         "dest"           "air_time"      
[13] "distance"       "hour"           "minute"         "time_hour"     
[17] "year"           "month"          "day"           

rename()

change the column names

flights %>% 
  relocate(tailnum) %>% 
  rename(tail_number = tailnum)

# A tibble: 336,776 × 19
   tail_number  year month   day dep_t…¹ sched…² dep_d…³ arr_t…⁴ sched…⁵ arr_d…⁶
   <chr>       <int> <int> <int>   <int>   <int>   <dbl>   <int>   <int>   <dbl>
 1 N14228       2013     1     1     517     515       2     830     819      11
 2 N24211       2013     1     1     533     529       4     850     830      20
 3 N619AA       2013     1     1     542     540       2     923     850      33
 4 N804JB       2013     1     1     544     545      -1    1004    1022     -18
 5 N668DN       2013     1     1     554     600      -6     812     837     -25
 6 N39463       2013     1     1     554     558      -4     740     728      12
 7 N516JB       2013     1     1     555     600      -5     913     854      19
 8 N829AS       2013     1     1     557     600      -3     709     723     -14
 9 N593JB       2013     1     1     557     600      -3     838     846      -8
10 N3ALAA       2013     1     1     558     600      -2     753     745       8
# … with 336,766 more rows, 9 more variables: carrier <chr>, flight <int>,
#   origin <chr>, dest <chr>, air_time <dbl>, distance <dbl>, hour <dbl>,
#   minute <dbl>, time_hour <dttm>, and abbreviated variable names ¹​dep_time,
#   ²​sched_dep_time, ³​dep_delay, ⁴​arr_time, ⁵​sched_arr_time, ⁶​arr_delay

re-name with select()

flights %>% 
  select(tail_number = tailnum)

# A tibble: 336,776 × 1
   tail_number
   <chr>      
 1 N14228     
 2 N24211     
 3 N619AA     
 4 N804JB     
 5 N668DN     
 6 N39463     
 7 N516JB     
 8 N829AS     
 9 N593JB     
10 N3ALAA     
# … with 336,766 more rows
…
arrange() defaults to ascending order. Use desc() for descending order.

you can arrange by multiple columns

group_by()

flights %>% 
  group_by(origin)

# A tibble: 336,776 × 19
# Groups:   origin [3]
    year month   day dep_time sched_de…¹ dep_d…² arr_t…³ sched…⁴ arr_d…⁵ carrier
   <int> <int> <int>    <int>      <int>   <dbl>   <int>   <int>   <dbl> <chr>  
 1  2013     1     1      517        515       2     830     819      11 UA     
 2  2013     1     1      533        529       4     850     830      20 UA     
 3  2013     1     1      542        540       2     923     850      33 AA     
 4  2013     1     1      544        545      -1    1004    1022     -18 B6     
 5  2013     1     1      554        600      -6     812     837     -25 DL     
 6  2013     1     1      554        558      -4     740     728      12 UA     
 7  2013     1     1      555        600      -5     913     854      19 B6     
 8  2013     1     1      557        600      -3     709     723     -14 EV     
 9  2013     1     1      557        600      -3     838     846      -8 B6     
10  2013     1     1      558        600      -2     753     745       8 AA     
# … with 336,766 more rows, 9 more variables: flight <int>, tailnum <chr>,
#   origin <chr>, dest <chr>, air_time <dbl>, distance <dbl>, hour <dbl>,
#   minute <dbl>, time_hour <dttm>, and abbreviated variable names
#   ¹​sched_dep_time, ²​dep_delay, ³​arr_time, ⁴​sched_arr_time, ⁵​arr_delay
…
count()

count() is a quick group_by() and summarize()

flights %>% 
  group_by(origin, carrier) %>%
  summarize(n = n(), .groups = "drop")

# A tibble: 35 × 3
   origin carrier     n
   <chr>  <chr>   <int>
 1 EWR    9E       1268
 2 EWR    AA       3487
 3 EWR    AS        714
 4 EWR    B6       6557
 5 EWR    DL       4342
 6 EWR    EV      43939
 7 EWR    MQ       2276
 8 EWR    OO          6
 9 EWR    UA      46087
10 EWR    US       4405
# … with 25 more rows

flights %>%
  count(origin, carrier)

# A tibble: 35 × 3
   origin carrier     n
   <chr>  <chr>   <int>
 1 EWR    9E       1268
 2 EWR    AA       3487
 3 EWR    AS        714
 4 EWR    B6       6557
 5 EWR    DL       4342
 6 EWR    EV      43939
 7 EWR    MQ       2276
 8 EWR    OO          6
 9 EWR    UA      46087
10 EWR    US       4405
# … with 25 more rows

mutate() with group_by()

flights %>% group_by(origin) %>%
  mutate(
    n = n(), 
  ) %>%
  select(origin, n)

# A tibble: 336,776 × 2
# Groups:   origin [3]
   origin      n
   <chr>   <int>
 1 EWR    120835
 2 LGA    104662
 3 JFK    111279
 4 JFK    111279
 5 LGA    104662
 6 EWR    120835
 7 EWR    120835
 8 LGA    104662
 9 JFK    111279
10 LGA    104662
# … with 336,766 more rows
…
